<svg xmlns="http://www.w3.org/2000/svg" xmlns:xlink="http://www.w3.org/1999/xlink" width="240" height="52" viewBox="0 0 240 52">
    <defs>
        <path id="a" d="M6.777 11.626l-3.583 6.18H.096V.003L5.24 8.97z"/>
        <path id="c" d="M6.777 11.626l-3.583 6.18H.096V.003L5.24 8.97z"/>
        <path id="e" d="M8.067 13l-3.602 6.884H.019V.057z"/>
        <path id="g" d="M8.067 13l-3.602 6.884H.019V.057z"/>
        <path id="i" d="M6.723.117v12.772H.077z"/>
        <path id="k" d="M6.723.117v12.772H.077z"/>
    </defs>
    <g fill="none" fill-rule="evenodd">
        <path fill="#FFFFFE" d="M.048 4.264V.127h14.521l8.304 13.513-7.775 14.866L.048 4.264M83.242 22.196l-3.584 6.18h-3.097V10.575l5.145 8.965 1.536 2.657"/>
        <g transform="translate(76.465 10.57)">
            <mask id="b" fill="#fff">
                <use xlink:href="#a"/>
            </mask>
            <path fill="#FFFFFE" d="M.086 17.82h6.691V0H.086z" mask="url(#b)"/>
        </g>
        <g transform="translate(76.465 10.57)">
            <mask id="d" fill="#fff">
                <use xlink:href="#c"/>
            </mask>
            <path fill="#FFFFFE" d="M.086 17.82h6.691V0H.086z" mask="url(#d)"/>
        </g>
        <path fill="#FFFFFE" d="M8.067 21.695L4.465 28.58H.019V8.752l8.048 12.943"/>
        <g transform="translate(0 8.695)">
            <mask id="f" fill="#fff">
                <use xlink:href="#e"/>
            </mask>
            <path fill="#FFFFFE" d="M.003 19.9h8.068V.055H.003z" mask="url(#f)"/>
        </g>
        <g transform="translate(0 8.695)">
            <mask id="h" fill="#fff">
                <use xlink:href="#g"/>
            </mask>
            <path fill="#FFFFFE" d="M.003 19.9h8.068V.055H.003z" mask="url(#h)"/>
        </g>
        <path fill="#FFFFFE" d="M36.83 15.632v12.772h-6.646"/>
        <g transform="translate(30.107 15.515)">
            <mask id="j" fill="#fff">
                <use xlink:href="#i"/>
            </mask>
            <path fill="#FFFFFE" d="M.072 12.896h6.65V.109H.073z" mask="url(#j)"/>
        </g>
        <g transform="translate(30.107 15.515)">
            <mask id="l" fill="#fff">
                <use xlink:href="#k"/>
            </mask>
            <path fill="#FFFFFE" d="M.072 12.896h6.65V.109H.073z" mask="url(#l)"/>
        </g>
        <path fill="#FFFFFE" d="M98.492 12.173L105.167.591h5.47v27.801H98.491V12.173M136.822 23.322h-13.621v-6.708h12.721v-5.112h-12.721V5.654h13.336V.542h-20.29v27.89h20.575v-5.11zm33.32-22.78h-6.956v11.205H149.28V.542h-6.955v27.89h6.955V17.147h13.907v11.287h6.956V.542zm32.023 0h-27.163v5.112h10.104v22.779h6.954V5.653h10.105V.543zm30.715 27.89h6.954V.543h-6.954v27.89zM71.861 14.488C71.861 7.78 66.736.174 56.835.174c-9.902 0-15.065 7.565-15.065 14.314 0 7.115 5.433 14.313 15.065 14.313 9.44 0 15.026-7.157 15.026-14.313zm-6.743 0c0 5.112-3.313 8.506-8.283 8.506-5.008 0-8.324-3.394-8.324-8.506 0-5.113 3.316-8.507 8.324-8.507 4.97 0 8.283 3.394 8.283 8.507zM27.83 28.404h-4.12v-16.22L29.709.604h7.122v10.695M76.586 6.153V.591h13.442l7.522 13.222-8.304 14.368-12.66-22.028M207.072 28.968V.503h7.098v11.436h5.636c6.555 0 9.395 4.592 9.395 8.598 0 3.883-2.924 8.431-9.436 8.431h-12.693zm7.098-5.217h2.506c3.84 0 5.217-.876 5.217-3.297 0-2.129-1.168-3.297-4.425-3.297h-3.298v6.594zM1.2 40.36c.75-.395 1.438-.685 2.582-.685 1.854 0 2.125 1.204 2.125 2.948-.625-.457-1.603-.602-2.334-.602-2.018 0-3.539 1.059-3.539 2.97 0 1.807 1.167 2.887 2.874 2.887 1.541 0 2.436-.643 2.999-1.35v1.205h1.582V42c0-2.43-.937-3.821-3.602-3.821-1.167 0-2.291.332-3.124.85l.438 1.33zm2.291 6.022c-1.082 0-1.686-.581-1.686-1.474 0-1.08.999-1.537 1.998-1.537.812 0 1.52.208 2.104.623v1.185c-.48.56-1.187 1.203-2.416 1.203zm6.874 1.35h1.666v-7.787h4.27v-1.559h-5.936v9.347zm14.706-2.325c-.604.561-1.666.975-2.874.975-1.834 0-3.125-1.038-3.27-2.803h7.206a5.49 5.49 0 0 0 .103-1.121c0-2.577-1.937-4.278-4.352-4.278-3.083 0-4.83 2.158-4.83 4.88 0 2.949 1.977 4.88 5.018 4.88 1.249 0 2.602-.395 3.519-1.225l-.52-1.308zm-3.27-5.67c1.624 0 2.623.956 2.707 2.492h-5.686c.188-1.434 1.27-2.492 2.978-2.492zm13.664 7.996h1.666v-9.347h-1.666v3.843h-5.208v-3.843h-1.666v9.347h1.666v-3.946h5.208v3.946zm3.583-7.684h3.437v7.684h1.666v-7.684h3.435v-1.663h-8.538v1.663zm17.329 5.13a3.557 3.557 0 0 1-2.686 1.203c-1.854 0-3.375-1.266-3.375-3.323 0-1.972 1.52-3.322 3.208-3.322.978 0 1.895.248 2.687.976l.77-1.309c-.874-.871-2.186-1.224-3.687-1.224-2.749 0-4.747 2.158-4.747 4.88 0 2.949 2.041 4.88 5.02 4.88 1.436 0 2.81-.54 3.602-1.558l-.792-1.203zm1.731-5.13h3.437v7.684h1.664v-7.684h3.437v-1.663h-8.538v1.663zm10.435 7.684c.853 0 2.27.083 3.436.083 2.915 0 4.311-.956 4.311-2.72 0-1.164-.687-1.933-2.186-2.202v-.043c1.124-.165 1.873-1.038 1.873-2.138 0-1.682-1.414-2.409-4.039-2.409-1.354 0-2.583.082-3.395.082v9.347zm3.666-4.196c1.498 0 2.31.457 2.31 1.434 0 .975-.853 1.495-2.394 1.495-.75 0-1.417-.041-1.916-.063v-2.866h2zm-.146-3.884c1.208 0 2.145.375 2.145 1.393 0 .914-.792 1.452-1.895 1.452h-2.104v-2.782c.417-.02 1.103-.063 1.854-.063zm6.229 3.406c0 2.805 2 4.882 4.998 4.882 2.999 0 4.999-2.077 4.999-4.882 0-2.802-2-4.88-4.999-4.88-2.999 0-4.998 2.078-4.998 4.88zm1.77 0c0-1.972 1.394-3.322 3.228-3.322 1.875 0 3.228 1.37 3.228 3.322 0 1.995-1.353 3.323-3.228 3.323-1.875 0-3.228-1.37-3.228-3.323zm19.58-4.673c-3.124 0-4.186 1.518-4.186 3.117 0 1.536 1.062 2.47 2.02 2.699l-2.708 3.53h2.02l2.291-3.114h1.812v3.115h1.666v-9.347h-2.915zm-2.415 3.158c0-.873.583-1.6 2.145-1.6h1.519v3.115h-1.916c-.833 0-1.748-.56-1.748-1.515zm8.436 10.342h1.666v-4.59c.666.437 1.644.645 2.645.645 2.935 0 4.872-2.181 4.872-5.027 0-2.761-1.666-4.734-4.331-4.734-1.292 0-2.54.56-3.186 1.308v-1.102h-1.666v13.5zm4.373-12.15c1.936 0 3.041 1.35 3.041 3.24 0 1.974-1.25 3.406-3.25 3.406-.895 0-1.666-.165-2.498-.726v-4.632a3.562 3.562 0 0 1 2.707-1.287zm15.496-1.35h-2.186l-3.957 4.57 4.227 4.777h2.311l-4.497-4.882 4.102-4.465zm-8.206 9.347h1.666v-9.347h-1.666v9.347zm12.123 0l5.415-6.958v6.958h1.666v-9.347h-1.666l-5.415 6.958v-6.958h-1.666v9.347h1.666zm18.516-9.347h-1.936l-2.583 3.531-2.54-3.53h-2.041l3.332 4.589-3.541 4.757h1.936l2.792-3.78 2.75 3.78h2.04l-3.562-4.839 3.353-4.508zm13.957 9.347h1.666v-9.347h-1.666v3.843h-5.205v-3.843h-1.666v9.347h1.666v-3.946h5.205v3.946zm4.147-4.674c0 2.805 2 4.882 4.998 4.882 2.999 0 4.999-2.077 4.999-4.882 0-2.802-2-4.88-4.999-4.88-2.999 0-4.998 2.078-4.998 4.88zm1.77 0c0-1.972 1.396-3.322 3.228-3.322 1.875 0 3.228 1.37 3.228 3.322 0 1.995-1.353 3.323-3.228 3.323-1.875 0-3.228-1.37-3.228-3.323zm10.707 4.674c.854 0 2.27.083 3.435.083 2.917 0 4.31-.956 4.31-2.72 0-1.164-.685-1.933-2.186-2.202v-.043c1.126-.165 1.875-1.038 1.875-2.138 0-1.682-1.416-2.409-4.04-2.409-1.353 0-2.583.082-3.394.082v9.347zm3.664-4.196c1.5 0 2.313.457 2.313 1.434 0 .975-.855 1.495-2.395 1.495-.751 0-1.416-.041-1.916-.063v-2.866h1.998zm-.145-3.884c1.207 0 2.145.375 2.145 1.393 0 .914-.792 1.452-1.896 1.452h-2.102v-2.782c.416-.02 1.103-.063 1.853-.063zm6.228 3.406c0 2.805 2 4.882 4.999 4.882 2.998 0 4.998-2.077 4.998-4.882 0-2.802-2-4.88-4.998-4.88-3 0-4.999 2.078-4.999 4.88zm1.77 0c0-1.972 1.396-3.322 3.229-3.322 1.874 0 3.227 1.37 3.227 3.322 0 1.995-1.353 3.323-3.227 3.323-1.875 0-3.228-1.37-3.228-3.323zm17.912 2.12a3.557 3.557 0 0 1-2.685 1.203c-1.855 0-3.375-1.266-3.375-3.323 0-1.972 1.52-3.322 3.207-3.322.98 0 1.896.248 2.688.976l.77-1.309c-.875-.871-2.187-1.224-3.687-1.224-2.749 0-4.747 2.158-4.747 4.88 0 2.949 2.04 4.88 5.019 4.88 1.437 0 2.81-.54 3.602-1.558l-.792-1.203zm1.732-5.13h3.436v7.684h1.666v-7.684h3.435v-1.663h-8.537v1.663zm17.516 5.358c-.603.561-1.666.975-2.873.975-1.834 0-3.126-1.038-3.271-2.803h7.207a5.49 5.49 0 0 0 .102-1.121c0-2.577-1.936-4.278-4.352-4.278-3.082 0-4.83 2.158-4.83 4.88 0 2.949 1.977 4.88 5.017 4.88 1.25 0 2.604-.395 3.52-1.225l-.52-1.308zm-3.27-5.67c1.625 0 2.624.956 2.708 2.492h-5.687c.189-1.434 1.271-2.492 2.979-2.492zm8.457 7.996l5.414-6.958v6.958h1.666v-9.347h-1.666l-5.414 6.958v-6.958h-1.666v9.347h1.666zm-.334-13.101c0 1.64 1.105 2.907 3.167 2.907 1.875 0 3.082-1.267 3.082-2.907h-1.561c-.084 1.122-.604 1.64-1.521 1.64-1 0-1.521-.518-1.605-1.64h-1.562z"/>
    </g>
</svg>
