<svg xmlns="http://www.w3.org/2000/svg" width="17" height="23" viewBox="0 0 17 23">
    <path fill="none" fill-rule="evenodd" stroke="#FFF" stroke-width="1.3" d="M8.53 21.992c-4.77.203-7.227-3.734-7.502-6.974-.183-2.16.53-4.195 2.137-6.103.373 1.375.792 2.34 1.256 2.893.464.554 1.13.882 1.996.985-.463-1.776-.26-3.721.607-5.836S9.164 3.19 10.843 2c-.026 1.558.5 3.076 1.578 4.553 1.616 2.216 3.86 5.085 3.55 8.465-.31 3.38-2.67 6.772-7.44 6.974z"/>
</svg>
