<svg xmlns="http://www.w3.org/2000/svg" width="20" height="22" viewBox="0 0 20 22">
    <g fill="none" fill-rule="evenodd">
        <path stroke="#0B9DBC" d="M.5 2.5h19v19H.5z"/>
        <path stroke="#0B9DBC" stroke-linecap="square" d="M6 1v4M15 1v4"/>
    </g>
</svg>
