<svg xmlns="http://www.w3.org/2000/svg" width="20" height="20" viewBox="0 0 20 20">
    <g fill="none" fill-rule="evenodd" stroke="#000" transform="translate(1 1)">
        <circle cx="8" cy="8" r="8"/>
        <path stroke-linecap="round" d="M13.433 13.987l4.512 4.512"/>
    </g>
</svg>
