<svg xmlns="http://www.w3.org/2000/svg" width="24" height="24" viewBox="0 0 24 24">
    <g fill="none" fill-rule="evenodd" stroke="#FFF" stroke-width="1.5">
        <circle cx="10" cy="10" r="9.25"/>
        <path d="M17 17l6 6M6 10h8M10 14V6"/>
    </g>
</svg>
